-------------------------------------------------------------------------------
Test set: edu.baylor.cs.junit.params.Ex3MethodSourceExampleTest
-------------------------------------------------------------------------------
Tests run: 2, Failures: 0, Errors: 0, Skipped: 0, Time elapsed: 0.011 sec - in edu.baylor.cs.junit.params.Ex3MethodSourceExampleTest
